[ 
  {
    "name": "theme_info",
    "theme_name": "Debut",
    "theme_author": "Shopify",
    "theme_version": "11.2.0",
    "theme_documentation_url": "https:\/\/help.shopify.com\/manual\/using-themes\/themes-by-shopify\/debut",
    "theme_support_url": "https:\/\/support.shopify.com\/"
  },
  {"name": "General settings",
    "settings": [
      {
        "label": "Heading",
        "type":"color",
        "id": "heading-color"
      },
      {
        "label": "Body Text",
        "type": "color",
        "id": "body-text"
      },
      {
        "label": "Accent",
        "type": "color",
        "id": "accent-color"
      },
      {
        "label": "Link Colour",
        "type": "color",
        "id": "link-color"
      },
      {
        "label": "Border",
        "type": "color",
        "id": "border-color"
      },
      {
        "label": "Background",
        "type": "color",
        "id": "bg-color"
      },
      {
        "label": "Secondary background",
        "type": "color",
        "id": "secondarybg-color"
      }
    ]
  },
  {"name": "Header",
    "settings": [
      {
        "label": "Background",
        "type":"color",
        "id": "header-bgcolor"
      },
      {
        "label": "Text",
        "type": "color",
        "id": "header-textcolor"
      },
      {
        "label": "Light Text",
        "type": "color",
        "id": "header-"
      }
    ]
  },
  {
    "name": "Colors",
    "settings": [
      {
        "type": "color",
        "label": "Body background",
        "default": "#fff",
        "id": "body_background_color"
      },
      {
        "type": "color",
        "label": "Accent",
        "default": "#000",
        "id": "accent_color"
      },
      {
        "type": "color",
        "label": "Text",
        "id": "font_color",
        "default": "#000"
      },
      {
        "type": "color",
        "label": "Heading text",
        "default": "#000",
        "id": "heading_font_color"
      },
      {
        "type": "color",
        "id": "anchor_tag_color",
        "label": "Link",
        "default": "#233445"
      },
      {
        "type": "color",
        "id": "anchor_tag_hover_color",
        "label": "Link hover",
        "default": "#f05d7c"
      },
      {
        "type": "header",
        "content": "Top Bar"
      },
      {
        "type": "color",
        "id": "top_bar_background",
        "label": "Topbar background",
        "default": "#4ecdbc"
      },
      {
        "type": "color",
        "id": "top_bar_text",
        "label": "Topbar text",
        "default": "#fff"
      },
      {
        "type": "color",
        "id": "top_bar_link",
        "label": "Topbar link",
        "default": "#e43535"
      },
      {
        "type":"header",
        "content":"Color schemes",
        "info":"Set color schemes for options 'Light' and 'Dark' here."
      },
      {
        "type":"color",
        "id":"section_light_color_bg",
        "label":"Light background",
        "default":"#f3f3f3"
      },
      {
        "type":"color",
        "id":"section_light_color_text",
        "label":"Light text",
        "default":"#000000"
      },
      {
        "type":"color",
        "id":"section_dark_color_bg",
        "label":"Dark background",
        "default":"#2d2d2d"
      },
      {
        "type":"color",
        "id":"section_dark_color_text",
        "label":"Dark text",
        "default":"#ffffff"
      }, 
      {
        "type": "header",
        "content": "Header"
      },
      {
        "type": "color",
        "label": "Header Background color",
        "id": "header_background",
        "default": "#fff"
      },
      {
        "type": "header",
        "content": "Main navigation"
      },
      {
        "type": "color",
        "label": "Link color",
        "id": "menu_link_color",
        "default": "#fff"
      },
      {
        "type": "color",
        "label": "Link hover color",
        "id": "menu_link_hover_color",
        "default": "#fff"
      },
      {
        "type": "header",
        "content": "Button color"
      },
      {
        "type": "select",
        "id": "btn_style",
        "label": "Choose Button Style",
        "options": [
          {
            "value": "0px",
            "label": "Square"
          },
          {
            "value": "2px",
            "label": "Rounded"
          },
          {
            "value": "100px",
            "label": "Pill Shaped"
          }
        ]
      }
    ] 
  }
]